[
  {
    "template": "ingotElement",
    "parameters": {
      "name": "adamantine",
      "color": "0xB82F2F",
      "rarity": "mythical",
      "text": [],
      "armor": {
        "template": "armor",
        "parameters": {
          "enableAll": true,
          "material": {
            "template": "armorMaterial",
            "parameters": {
              "durability": 2394,
              "headReduction": 100,
              "chestReduction": 100,
              "legsReduction": 100,
              "feetReduction": 100,
              "enchantability": 13
            }
          }
        }
      },
      "tools": {
        "template": "tools",
        "parameters": {
          "material": {
            "template": "toolMaterial",
            "parameters": {
              "durability": 2394,
              "harvestLevel": 5,
              "speed": 9.5,
              "damage": 3.5,
              "enchantability": 13
            }
          }
        }
      },
      "ore": {
        "template": "oreSolid",
        "parameters": {
          "hardness": 3.0,
          "resistance": 3.0,
          "maxExperience": 10,
          "minExperience": 5,
          "texture": 0
        }
      },
      "generation": {
        "template": "endGeneration",
        "parameters": {
          "chance": 6,
          "maxHeight": 60,
          "minHeight": 20,
          "size": 4,
          "weight": 3
        }
      }
    }
  },
  {
    "template": "alloy",
    "parameters": {
      "name": "adamantine",
      "color": "B82F2F",
      "armor": {
        "template": "armor",
        "parameters": {
          "material": {
            "template": "armorMaterial",
            "parameters": {
              "durability": 2394,
              "headReduction": 100,
              "chestReduction": 100,
              "legsReduction": 100,
              "feetReduction": 100,
              "enchantability": 13
            }
          }
        }
      },
      "tools": {
        "template": "tools",
        "parameters": {
          "material": {
            "template": "toolMaterial",
            "parameters": {
              "durability": 2394,
              "harvestLevel": 5,
              "speed": 9.5,
              "damage": 3.5,
              "enchantability": 13
            }
          }
        }
      }
    }
  }
]